HW2
…
View(labour)

#Transform to tsibble object
labour_tsibble <- as_tsibble(labour)
View(labour_tsibble)
labour_tsibble

## # A tsibble: 211 x 2 [1M]
##       index value
##       <mth> <dbl>
##  1 1978 Feb 6468.
##  2 1978 Mar 6465.
##  3 1978 Apr 6458.
##  4 1978 May 6437.
##  5 1978 Jun 6425.
##  6 1978 Jul 6417.
##  7 1978 Aug 6404.
##  8 1978 Sep 6412.
##  9 1978 Oct 6416.
## 10 1978 Nov 6407.
## #  201 more rows
…
# Plot the two time series
labour_boxcox <- labour_tsibble %>% 
  mutate(lab_ts = box_cox(value, lambda=lambda))
labour_boxcox

## # A tsibble: 211 x 3 [1M]
##       index value lab_ts
##       <mth> <dbl>  <dbl>
##  1 1978 Feb 6468.   1.11
##  2 1978 Mar 6465.   1.11
##  3 1978 Apr 6458.   1.11
##  4 1978 May 6437.   1.11
##  5 1978 Jun 6425.   1.11
##  6 1978 Jul 6417.   1.11
##  7 1978 Aug 6404.   1.11
##  8 1978 Sep 6412.   1.11
##  9 1978 Oct 6416.   1.11
## 10 1978 Nov 6407.   1.11
## #  201 more rows
…
